<?xml version="1.0" encoding="utf-8"?>
<!-- Generator: Adobe Illustrator 22.1.0, SVG Export Plug-In . SVG Version: 6.00 Build 0)  -->
<svg version="1.1" id="Layer_1" xmlns="http://www.w3.org/2000/svg" xmlns:xlink="http://www.w3.org/1999/xlink" x="0px" y="0px"
	 viewBox="0 0 195 49" style="enable-background:new 0 0 195 49;" xml:space="preserve">
<style type="text/css">
	.st0{fill:#F36C37;}
</style>
<g>
	<polygon class="st0" points="35.7,46 1.1,20.6 9.6,8.9 35.7,28.1 66.1,5.8 96.5,28.1 126.9,5.8 157.3,28.1 183.5,8.9 192,20.6 
		157.3,46 126.9,23.7 96.5,46 66.1,23.7 	" style="background: red"/>
</g>
</svg>
